<?xml version="1.0" encoding="UTF-8"?>
<svg width="32px" height="32px" viewBox="0 0 32 32" version="1.1" xmlns="http://www.w3.org/2000/svg" xmlns:xlink="http://www.w3.org/1999/xlink">
    <!-- Generator: sketchtool 49.3 (51167) - http://www.bohemiancoding.com/sketch -->
    <title>A26E0B73-C5E3-4C4D-94C5-7D12A2CC7CBF</title>
    <desc>Created with sketchtool.</desc>
    <defs></defs>
    <g id="Symbols" stroke="none" stroke-width="1" fill="none" fill-rule="evenodd">
        <g id="icons/pin-resume" stroke="#172444" stroke-width="2">
            <g>
                <polygon id="Фигура_8_копия_3" points="8 26 25 26 25 8.61 21.329 5 8 5"></polygon>
                <path d="M12.529,12 L20.471,12" id="Фигура_8_копия_4"></path>
                <path d="M12.529,16 L20.471,16" id="Фигура_8_копия_5"></path>
                <path d="M12.529,20 L20.471,20" id="Фигура_8_копия_6"></path>
            </g>
        </g>
    </g>
</svg>