<?xml version="1.0" encoding="UTF-8"?>
<svg width="28px" height="28px" viewBox="0 0 28 28" version="1.1" xmlns="http://www.w3.org/2000/svg" xmlns:xlink="http://www.w3.org/1999/xlink">
    <!-- Generator: sketchtool 48.2 (47327) - http://www.bohemiancoding.com/sketch -->
    <title>377EB994-0A98-4EC2-9F3C-BABD6F21C671</title>
    <desc>Created with sketchtool.</desc>
    <defs></defs>
    <g id="icons/facebook-copy" stroke="none" stroke-width="1" fill="none" fill-rule="evenodd">
        <path d="M11.7794872,23.0666667 L11.7794872,15.4230769 L9,15.4230769 L9,11.9487179 L11.7794872,11.9487179 L11.7794872,9.16923077 C11.7794872,6.86642564 13.6459128,5 15.9487179,5 L18.7282051,5 L18.7282051,8.47435897 L17.3384615,8.47435897 C16.5713231,8.47435897 15.9487179,8.40209231 15.9487179,9.16923077 L15.9487179,11.9487179 L19.4230769,11.9487179 L18.0333333,15.4230769 L15.9487179,15.4230769 L15.9487179,23.0666667 L11.7794872,23.0666667 Z" id="Shape" fill="#FFFFFF" fill-rule="nonzero"></path>
    </g>
</svg>