<?xml version="1.0" encoding="UTF-8"?>
<svg width="32px" height="32px" viewBox="0 0 32 32" version="1.1" xmlns="http://www.w3.org/2000/svg" xmlns:xlink="http://www.w3.org/1999/xlink">
    <!-- Generator: sketchtool 48.2 (47327) - http://www.bohemiancoding.com/sketch -->
    <title>F535B42D-8881-43DD-83B3-2F6BC68779A1</title>
    <desc>Created with sketchtool.</desc>
    <defs></defs>
    <g id="icon/watchlists" stroke="none" stroke-width="1" fill="none" fill-rule="evenodd">
        <g id="Page-1" transform="translate(9.000000, 11.000000)" stroke="#15161C" stroke-width="2">
            <path d="M7,0 C4.1692,0 1.8361,1.66642857 0,5 C1.645,8.33357143 3.9781,10 7,10 C10.0219,10 12.355,8.33357143 14,5 C12.1639,1.66642857 9.8308,0 7,0" id="Fill-1"></path>
            <path d="M7,4 C6.44766667,4 6,4.44766667 6,5 C6,5.55233333 6.44766667,6 7,6 C7.55233333,6 8,5.55233333 8,5 C8,4.44766667 7.55233333,4 7,4" id="Fill-3"></path>
        </g>
    </g>
</svg>